{
    "name": "Abiotic Suitability",
    "description": "Build an abiotic suitability layer",
    "algorithm_category": "",
    "dependencies": "bsrmap",
    "input": {
        "$schema": "http://json-schema.org/draft-07/schema#",
        "$id": "http://ecocommons.org.au/sdm-function/abiotic_suitability.schema.json",
        "title": "Abiotic Suitability Function Parameters",
        "description": "Schema for Abiotic Suitability Function parameters",
        "type": "object",
        "properties": {
            "template": {
                "title": "Risk mapping template dataset/resultset file",
                "description": "A dataset/resultset UUID with a list of one selected layer name.",
                "type": "object",
                "properties": {
                    "uuid": {
                        "title": "dataset id",
                        "description": "UUID of dataset/resultset",
                        "type": "string",
                        "pattern": "^[a-f0-9]{8}-[a-f0-9]{4}-[a-f0-9]{4}-[89ab][a-f0-9]{3}-[a-f0-9]{12}$"
                    },
                    "layers": {
                        "title": "layers",
                        "description": "List of layer names",
                        "type": "array",
                        "items": {
                            "description": "Layer name",
                            "type": "string"
                        },
                        "minItems": 1,
                        "uniqueItems": true
                    },
                    "source_type": {
                        "title": "source type",
                        "description": "Type of input source",
                        "type": "string",
                        "enum": [
                            "dataset",
                            "resultset"
                        ],
                        "default": "dataset"
                    }
                },
                "required": [
                    "uuid",
                    "layers",
                    "source_type"
                ]
            },
            "sdm_output":{
                "title": "SDM projection output layer",
                "description": "SDM dataset/resultset UUID with a list of one selected layer/file name.",
                "type": "object",
                "properties": {
                    "uuid": {
                        "title": "dataset/resultset id",
                        "description": "UUID of dataset/resultset",
                        "type": "string",
                        "pattern": "^[a-f0-9]{8}-[a-f0-9]{4}-[a-f0-9]{4}-[89ab][a-f0-9]{3}-[a-f0-9]{12}$"
                    },
                    "layers": {
                        "title": "layers",
                        "description": "List of layer names",
                        "type": "array",
                        "items": {
                            "description": "Layer name",
                            "type": "string"
                        },
                        "minItems": 1,
                        "uniqueItems": true
                    },
                    "source_type": {
                        "title": "source type",
                        "description": "Type of input source",
                        "type": "string",
                        "enum": [
                            "dataset",
                            "resultset"
                        ],
                        "default": "dataset"
                    }
                },
                "required": [
                    "uuid",
                    "layers",
                    "source_type"
                ]
            },
            "normalize": {
                "title": "normalize",
                "description": "Indicating if the combined cells should be normalized.",
                "type": "boolean",
                "default": false
            }
        },
        "required": [
            "template",
            "sdm_output",
            "normalize"
        ]
    },
    "output": {
        "abiotic_suitability.tif": {
            "title": "Abiotic Suitability",
            "genre": "DataGenreRiskMappingResult",
            "mimetype": "image/geotiff",
            "layer": "abiotic_suitability",
            "data_type": "Continuous"
        },
        "*.R": {
            "title": "Job script",
            "genre": "JobScript",
            "mimetype": "text/x-r"
        },
        "*.Rout": {
            "title": "Log file",
            "genre": "DataGenreLog",
            "mimetype": "text/x-r-transcript"
        },
        "metadata.json": {
            "title": "Metadata",
            "genre": "DataGenreMetadata",
            "mimetype": "application/json"
        },
        "params.json": {
            "title": "Input parameters",
            "genre": "InputParams",
            "mimetype": "text/x-r-transcript"
        }
    }
}