{
	"type": "Resultset",
	"uuid": "7dd73278-0954-11ec-b4f1-0242ac130003",
	"title": "test-jobreq-test-ann-bioclim1-Bioclim-30-Aug-2021-05:38:23.479818",
	"categories": [
		"SDM"
	],
	"description": "blah",
	"job": "7dd73278-0954-11ec-b4f1-0242ac130003",
	"results": [
		{
			"type": "File",
			"bccvl:metadata": {
				"url": "https://swift.rc.nectar.org.au/v1/project_id/test_result/7dd73278-0954-11ec-b4f1-0242ac130003/Evaluation-data_koala_bioclim.csv",
				"size": 8579,
				"type": "FILE",
				"uuid": "7cabf83e-0959-11ec-bb9b-0242ac110002",
				"genre": "DataGenreSDMEval",
				"order": 20,
				"title": "Model evaluation data",
				"mimetype": "text/csv"
			},
			"rangeAlternates": {
				"dmgr:file": {
					"url": "http://localhost:9000/resultmanager/result/7cabf83e-0959-11ec-bb9b-0242ac110002/download/Evaluation-data_koala_bioclim.csv",
					"tempurl": "http://localhost:9000/resultmanager/result/7cabf83e-0959-11ec-bb9b-0242ac110002/tempurl/Evaluation-data_koala_bioclim.csv"
				}
			}
		},
		{
			"type": "File",
			"bccvl:metadata": {
				"url": "https://swift.rc.nectar.org.au/v1/project_id/test_result/7dd73278-0954-11ec-b4f1-0242ac130003/Evaluation-statistics_koala_bioclim.csv",
				"size": 905,
				"type": "FILE",
				"uuid": "7ca9a57a-0959-11ec-bb9b-0242ac110002",
				"genre": "DataGenreSDMEval",
				"order": 11,
				"title": "Model accuracy statistics",
				"mimetype": "text/csv"
			},
			"rangeAlternates": {
				"dmgr:file": {
					"url": "http://localhost:9000/resultmanager/result/7ca9a57a-0959-11ec-bb9b-0242ac110002/download/Evaluation-statistics_koala_bioclim.csv",
					"tempurl": "http://localhost:9000/resultmanager/result/7ca9a57a-0959-11ec-bb9b-0242ac110002/tempurl/Evaluation-statistics_koala_bioclim.csv"
				}
			}
		},
		{
			"type": "File",
			"bccvl:metadata": {
				"url": "https://swift.rc.nectar.org.au/v1/project_id/test_result/7dd73278-0954-11ec-b4f1-0242ac130003/Loss-function-intervals-table_koala_bioclim.csv",
				"size": 279,
				"type": "FILE",
				"uuid": "7ca118ec-0959-11ec-bb9b-0242ac110002",
				"genre": "DataGenreSDMEval",
				"order": 18,
				"title": "Loss functions table",
				"mimetype": "text/csv",
				"thresholds": {
					"TPR = TNR": 0.26984126984127,
					"Maximize PPV+NPV": 0.222222222222222,
					"Maximize TPR+TNR": 0.26984126984127,
					"Balance all errors": 0.222222222222222
				}
			},
			"rangeAlternates": {
				"dmgr:file": {
					"url": "http://localhost:9000/resultmanager/result/7ca118ec-0959-11ec-bb9b-0242ac110002/download/Loss-function-intervals-table_koala_bioclim.csv",
					"tempurl": "http://localhost:9000/resultmanager/result/7ca118ec-0959-11ec-bb9b-0242ac110002/tempurl/Loss-function-intervals-table_koala_bioclim.csv"
				}
			}
		},
		{
			"type": "Coverage",
			"domain": {
				"type": "Domain",
				"domainType": "FeatureCollection",
				"axes": {},
				"referencing": [
					{
						"type": "Point",
						"columns": [
							"lon",
							"lat"
						],
						"system": {
							"type": "GeographicCRS",
							"wkt": "GEOGCS[\"WGS 84\",DATUM[\"WGS_1984\",SPHEROID[\"WGS 84\",6378137,298.257223563,AUTHORITY[\"EPSG\",\"7030\"]],AUTHORITY[\"EPSG\",\"6326\"]],PRIMEM[\"Greenwich\",0],UNIT[\"degree\",0.0174532925199433],AUTHORITY[\"EPSG\",\"4326\"]]"
						}
					}
				]
			},
			"parameters": {
				"bioclim_04": {
					"type": "Parameter",
					"observedProperty": {
						"id": "bioclim_04",
						"label": {
							"en": "environmental variable bioclim_04"
						}
					}
				},
				"bioclim_03": {
					"type": "Parameter",
					"observedProperty": {
						"id": "bioclim_03",
						"label": {
							"en": "environmental variable bioclim_03"
						}
					}
				},
				"bioclim_02": {
					"type": "Parameter",
					"observedProperty": {
						"id": "bioclim_02",
						"label": {
							"en": "environmental variable bioclim_02"
						}
					}
				},
				"bioclim_01": {
					"type": "Parameter",
					"observedProperty": {
						"id": "bioclim_01",
						"label": {
							"en": "environmental variable bioclim_01"
						}
					}
				},
				"species": {
					"type": "Parameter",
					"observedProperty": {
						"id": "species",
						"label": {
							"en": "species"
						}
					}
				},
				"lat": {
					"type": "Parameter",
					"observedProperty": {
						"id": "lat",
						"label": {
							"en": "Latitude"
						}
					}
				},
				"lon": {
					"type": "Parameter",
					"observedProperty": {
						"id": "lon",
						"label": {
							"en": "Longitude"
						}
					}
				}
			},
			"ranges": {},
			"bccvl:metadata": {
				"url": "https://swift.rc.nectar.org.au/v1/project_id/test_result/7dd73278-0954-11ec-b4f1-0242ac130003/absence_environmental_koala_bioclim.csv",
				"size": 5578,
				"type": "POINT",
				"uuid": "7cab0366-0959-11ec-bb9b-0242ac110002",
				"count": 63,
				"genre": "DataGenreSpeciesAbsenceEnv",
				"order": 7,
				"title": "Absence points with environmental data",
				"mimetype": "text/csv",
				"layername": "Absence points with environmental data",
				"extent_wgs84": {
					"top": -27.0875,
					"left": 152.765,
					"right": 153.435,
					"bottom": -27.9775
				},
				"scientificName": [
					"koala"
				]
			},
			"rangeAlternates": {
				"dmgr:csv": {
					"url": "http://localhost:9000/resultmanager/result/7cab0366-0959-11ec-bb9b-0242ac110002/download/absence_environmental_koala_bioclim.csv",
					"tempurl": "http://localhost:9000/resultmanager/result/7cab0366-0959-11ec-bb9b-0242ac110002/tempurl/absence_environmental_koala_bioclim.csv"
				}
			}
		},
		{
			"type": "File",
			"bccvl:metadata": {
				"url": "https://swift.rc.nectar.org.au/v1/project_id/test_result/7dd73278-0954-11ec-b4f1-0242ac130003/bioclim.Rout",
				"size": 9931,
				"type": "FILE",
				"uuid": "7cafb33e-0959-11ec-bb9b-0242ac110002",
				"genre": "DataGenreLog",
				"order": 24,
				"title": "Log file",
				"mimetype": "text/x-r-transcript"
			},
			"rangeAlternates": {
				"dmgr:file": {
					"url": "http://localhost:9000/resultmanager/result/7cafb33e-0959-11ec-bb9b-0242ac110002/download/bioclim.Rout",
					"tempurl": "http://localhost:9000/resultmanager/result/7cafb33e-0959-11ec-bb9b-0242ac110002/tempurl/bioclim.Rout"
				}
			}
		},
		{
			"type": "File",
			"bccvl:metadata": {
				"url": "https://swift.rc.nectar.org.au/v1/project_id/test_result/7dd73278-0954-11ec-b4f1-0242ac130003/bioclim_01_response_curve_koala_bioclim.png",
				"size": 6750,
				"type": "FILE",
				"uuid": "7cabdda4-0959-11ec-bb9b-0242ac110002",
				"genre": "DataGenreSDMEval",
				"order": 8,
				"title": "Marginal Response Curve",
				"hidden": true,
				"mimetype": "image/png"
			},
			"rangeAlternates": {
				"dmgr:file": {
					"url": "http://localhost:9000/resultmanager/result/7cabdda4-0959-11ec-bb9b-0242ac110002/download/bioclim_01_response_curve_koala_bioclim.png",
					"tempurl": "http://localhost:9000/resultmanager/result/7cabdda4-0959-11ec-bb9b-0242ac110002/tempurl/bioclim_01_response_curve_koala_bioclim.png"
				}
			}
		},
		{
			"type": "File",
			"bccvl:metadata": {
				"url": "https://swift.rc.nectar.org.au/v1/project_id/test_result/7dd73278-0954-11ec-b4f1-0242ac130003/bioclim_02_response_curve_koala_bioclim.png",
				"size": 6540,
				"type": "FILE",
				"uuid": "7cabdfe8-0959-11ec-bb9b-0242ac110002",
				"genre": "DataGenreSDMEval",
				"order": 8,
				"title": "Marginal Response Curve",
				"hidden": true,
				"mimetype": "image/png"
			},
			"rangeAlternates": {
				"dmgr:file": {
					"url": "http://localhost:9000/resultmanager/result/7cabdfe8-0959-11ec-bb9b-0242ac110002/download/bioclim_02_response_curve_koala_bioclim.png",
					"tempurl": "http://localhost:9000/resultmanager/result/7cabdfe8-0959-11ec-bb9b-0242ac110002/tempurl/bioclim_02_response_curve_koala_bioclim.png"
				}
			}
		},
		{
			"type": "File",
			"bccvl:metadata": {
				"url": "https://swift.rc.nectar.org.au/v1/project_id/test_result/7dd73278-0954-11ec-b4f1-0242ac130003/bioclim_03_response_curve_koala_bioclim.png",
				"size": 6569,
				"type": "FILE",
				"uuid": "7cabe1dc-0959-11ec-bb9b-0242ac110002",
				"genre": "DataGenreSDMEval",
				"order": 8,
				"title": "Marginal Response Curve",
				"hidden": true,
				"mimetype": "image/png"
			},
			"rangeAlternates": {
				"dmgr:file": {
					"url": "http://localhost:9000/resultmanager/result/7cabe1dc-0959-11ec-bb9b-0242ac110002/download/bioclim_03_response_curve_koala_bioclim.png",
					"tempurl": "http://localhost:9000/resultmanager/result/7cabe1dc-0959-11ec-bb9b-0242ac110002/tempurl/bioclim_03_response_curve_koala_bioclim.png"
				}
			}
		},
		{
			"type": "File",
			"bccvl:metadata": {
				"url": "https://swift.rc.nectar.org.au/v1/project_id/test_result/7dd73278-0954-11ec-b4f1-0242ac130003/bioclim_04_response_curve_koala_bioclim.png",
				"size": 5875,
				"type": "FILE",
				"uuid": "7cabe3d0-0959-11ec-bb9b-0242ac110002",
				"genre": "DataGenreSDMEval",
				"order": 8,
				"title": "Marginal Response Curve",
				"hidden": true,
				"mimetype": "image/png"
			},
			"rangeAlternates": {
				"dmgr:file": {
					"url": "http://localhost:9000/resultmanager/result/7cabe3d0-0959-11ec-bb9b-0242ac110002/download/bioclim_04_response_curve_koala_bioclim.png",
					"tempurl": "http://localhost:9000/resultmanager/result/7cabe3d0-0959-11ec-bb9b-0242ac110002/tempurl/bioclim_04_response_curve_koala_bioclim.png"
				}
			}
		},
		{
			"type": "File",
			"bccvl:metadata": {
				"url": "https://swift.rc.nectar.org.au/v1/project_id/test_result/7dd73278-0954-11ec-b4f1-0242ac130003/biomod2_like_VariableImportance_koala_bioclim.csv",
				"size": 219,
				"type": "FILE",
				"uuid": "7ca08990-0959-11ec-bb9b-0242ac110002",
				"genre": "DataGenreSDMEval",
				"order": 9,
				"title": "Variable importance table",
				"mimetype": "text/csv"
			},
			"rangeAlternates": {
				"dmgr:file": {
					"url": "http://localhost:9000/resultmanager/result/7ca08990-0959-11ec-bb9b-0242ac110002/download/biomod2_like_VariableImportance_koala_bioclim.csv",
					"tempurl": "http://localhost:9000/resultmanager/result/7ca08990-0959-11ec-bb9b-0242ac110002/tempurl/biomod2_like_VariableImportance_koala_bioclim.csv"
				}
			}
		},
		{
			"type": "File",
			"bccvl:metadata": {
				"url": "https://swift.rc.nectar.org.au/v1/project_id/test_result/7dd73278-0954-11ec-b4f1-0242ac130003/dismo-ROC_koala_bioclim.png",
				"size": 13954,
				"type": "FILE",
				"uuid": "7caf741e-0959-11ec-bb9b-0242ac110002",
				"genre": "DataGenreSDMEval",
				"order": 16,
				"title": "ROC plot",
				"mimetype": "image/png"
			},
			"rangeAlternates": {
				"dmgr:file": {
					"url": "http://localhost:9000/resultmanager/result/7caf741e-0959-11ec-bb9b-0242ac110002/download/dismo-ROC_koala_bioclim.png",
					"tempurl": "http://localhost:9000/resultmanager/result/7caf741e-0959-11ec-bb9b-0242ac110002/tempurl/dismo-ROC_koala_bioclim.png"
				}
			}
		},
		{
			"type": "File",
			"bccvl:metadata": {
				"url": "https://swift.rc.nectar.org.au/v1/project_id/test_result/7dd73278-0954-11ec-b4f1-0242ac130003/dismo-TPR-TNR_koala_bioclim.png",
				"size": 32329,
				"type": "FILE",
				"uuid": "7cad27e0-0959-11ec-bb9b-0242ac110002",
				"genre": "DataGenreSDMEval",
				"order": 14,
				"title": "Sensitivity/Specificity plot",
				"mimetype": "image/png"
			},
			"rangeAlternates": {
				"dmgr:file": {
					"url": "http://localhost:9000/resultmanager/result/7cad27e0-0959-11ec-bb9b-0242ac110002/download/dismo-TPR-TNR_koala_bioclim.png",
					"tempurl": "http://localhost:9000/resultmanager/result/7cad27e0-0959-11ec-bb9b-0242ac110002/tempurl/dismo-TPR-TNR_koala_bioclim.png"
				}
			}
		},
		{
			"type": "File",
			"bccvl:metadata": {
				"url": "https://swift.rc.nectar.org.au/v1/project_id/test_result/7dd73278-0954-11ec-b4f1-0242ac130003/dismo-error-rates_koala_bioclim.png",
				"size": 36576,
				"type": "FILE",
				"uuid": "7cab9bb4-0959-11ec-bb9b-0242ac110002",
				"genre": "DataGenreSDMEval",
				"order": 15,
				"title": "Error rates plot",
				"mimetype": "image/png"
			},
			"rangeAlternates": {
				"dmgr:file": {
					"url": "http://localhost:9000/resultmanager/result/7cab9bb4-0959-11ec-bb9b-0242ac110002/download/dismo-error-rates_koala_bioclim.png",
					"tempurl": "http://localhost:9000/resultmanager/result/7cab9bb4-0959-11ec-bb9b-0242ac110002/tempurl/dismo-error-rates_koala_bioclim.png"
				}
			}
		},
		{
			"type": "File",
			"bccvl:metadata": {
				"url": "https://swift.rc.nectar.org.au/v1/project_id/test_result/7dd73278-0954-11ec-b4f1-0242ac130003/dismo-loss-functions_koala_bioclim.png",
				"size": 36658,
				"type": "FILE",
				"uuid": "7cab6f18-0959-11ec-bb9b-0242ac110002",
				"genre": "DataGenreSDMEval",
				"order": 17,
				"title": "Loss functions plot",
				"mimetype": "image/png"
			},
			"rangeAlternates": {
				"dmgr:file": {
					"url": "http://localhost:9000/resultmanager/result/7cab6f18-0959-11ec-bb9b-0242ac110002/download/dismo-loss-functions_koala_bioclim.png",
					"tempurl": "http://localhost:9000/resultmanager/result/7cab6f18-0959-11ec-bb9b-0242ac110002/tempurl/dismo-loss-functions_koala_bioclim.png"
				}
			}
		},
		{
			"type": "File",
			"bccvl:metadata": {
				"url": "https://swift.rc.nectar.org.au/v1/project_id/test_result/7dd73278-0954-11ec-b4f1-0242ac130003/dismo-loss-intervals_koala_bioclim.png",
				"size": 25650,
				"type": "FILE",
				"uuid": "7cab84b2-0959-11ec-bb9b-0242ac110002",
				"genre": "DataGenreSDMEval",
				"order": 19,
				"title": "Loss functions intervals",
				"mimetype": "image/png"
			},
			"rangeAlternates": {
				"dmgr:file": {
					"url": "http://localhost:9000/resultmanager/result/7cab84b2-0959-11ec-bb9b-0242ac110002/download/dismo-loss-intervals_koala_bioclim.png",
					"tempurl": "http://localhost:9000/resultmanager/result/7cab84b2-0959-11ec-bb9b-0242ac110002/tempurl/dismo-loss-intervals_koala_bioclim.png"
				}
			}
		},
		{
			"type": "File",
			"bccvl:metadata": {
				"url": "https://swift.rc.nectar.org.au/v1/project_id/test_result/7dd73278-0954-11ec-b4f1-0242ac130003/dismo-presence-absence-hist_koala_bioclim.png",
				"size": 21701,
				"type": "FILE",
				"uuid": "7ca1452e-0959-11ec-bb9b-0242ac110002",
				"genre": "DataGenreSDMEval",
				"order": 13,
				"title": "Presence/absence histogram",
				"mimetype": "image/png"
			},
			"rangeAlternates": {
				"dmgr:file": {
					"url": "http://localhost:9000/resultmanager/result/7ca1452e-0959-11ec-bb9b-0242ac110002/download/dismo-presence-absence-hist_koala_bioclim.png",
					"tempurl": "http://localhost:9000/resultmanager/result/7ca1452e-0959-11ec-bb9b-0242ac110002/tempurl/dismo-presence-absence-hist_koala_bioclim.png"
				}
			}
		},
		{
			"type": "File",
			"bccvl:metadata": {
				"url": "https://swift.rc.nectar.org.au/v1/project_id/test_result/7dd73278-0954-11ec-b4f1-0242ac130003/dismo-presence-absence-plot_koala_bioclim.png",
				"size": 29349,
				"type": "FILE",
				"uuid": "7ca15e38-0959-11ec-bb9b-0242ac110002",
				"genre": "DataGenreSDMEval",
				"order": 12,
				"title": "Presence/absence density plot",
				"mimetype": "image/png"
			},
			"rangeAlternates": {
				"dmgr:file": {
					"url": "http://localhost:9000/resultmanager/result/7ca15e38-0959-11ec-bb9b-0242ac110002/download/dismo-presence-absence-plot_koala_bioclim.png",
					"tempurl": "http://localhost:9000/resultmanager/result/7ca15e38-0959-11ec-bb9b-0242ac110002/tempurl/dismo-presence-absence-plot_koala_bioclim.png"
				}
			}
		},
		{
			"type": "File",
			"bccvl:metadata": {
				"url": "https://swift.rc.nectar.org.au/v1/project_id/test_result/7dd73278-0954-11ec-b4f1-0242ac130003/maxent_like_VariableImportance_koala_bioclim.csv",
				"size": 185,
				"type": "FILE",
				"uuid": "7ca0abfa-0959-11ec-bb9b-0242ac110002",
				"genre": "DataGenreSDMEval",
				"order": 10,
				"title": "Variable importance table",
				"mimetype": "text/csv"
			},
			"rangeAlternates": {
				"dmgr:file": {
					"url": "http://localhost:9000/resultmanager/result/7ca0abfa-0959-11ec-bb9b-0242ac110002/download/maxent_like_VariableImportance_koala_bioclim.csv",
					"tempurl": "http://localhost:9000/resultmanager/result/7ca0abfa-0959-11ec-bb9b-0242ac110002/tempurl/maxent_like_VariableImportance_koala_bioclim.csv"
				}
			}
		},
		{
			"type": "File",
			"bccvl:metadata": {
				"url": "https://swift.rc.nectar.org.au/v1/project_id/test_result/7dd73278-0954-11ec-b4f1-0242ac130003/model.object_koala_bioclim.RData",
				"size": 966,
				"type": "FILE",
				"uuid": "7cad026a-0959-11ec-bb9b-0242ac110002",
				"genre": "DataGenreSDMModel",
				"species": "Koala",
				"order": 23,
				"title": "R SDM Model object",
				"mimetype": "application/x-r-data"
			},
			"rangeAlternates": {
				"dmgr:file": {
					"url": "http://localhost:9000/resultmanager/result/7cad026a-0959-11ec-bb9b-0242ac110002/download/model.object_koala_bioclim.RData",
					"tempurl": "http://localhost:9000/resultmanager/result/7cad026a-0959-11ec-bb9b-0242ac110002/tempurl/model.object_koala_bioclim.RData"
				}
			}
		},
		{
			"type": "Coverage",
			"domain": {
				"type": "Domain",
				"domainType": "FeatureCollection",
				"axes": {},
				"referencing": [
					{
						"type": "Point",
						"columns": [
							"lon",
							"lat"
						],
						"system": {
							"type": "GeographicCRS",
							"wkt": "GEOGCS[\"WGS 84\",DATUM[\"WGS_1984\",SPHEROID[\"WGS 84\",6378137,298.257223563,AUTHORITY[\"EPSG\",\"7030\"]],AUTHORITY[\"EPSG\",\"6326\"]],PRIMEM[\"Greenwich\",0],UNIT[\"degree\",0.0174532925199433],AUTHORITY[\"EPSG\",\"4326\"]]"
						}
					}
				]
			},
			"parameters": {
				"bioclim_04": {
					"type": "Parameter",
					"observedProperty": {
						"id": "bioclim_04",
						"label": {
							"en": "environmental variable bioclim_04"
						}
					}
				},
				"bioclim_03": {
					"type": "Parameter",
					"observedProperty": {
						"id": "bioclim_03",
						"label": {
							"en": "environmental variable bioclim_03"
						}
					}
				},
				"bioclim_02": {
					"type": "Parameter",
					"observedProperty": {
						"id": "bioclim_02",
						"label": {
							"en": "environmental variable bioclim_02"
						}
					}
				},
				"bioclim_01": {
					"type": "Parameter",
					"observedProperty": {
						"id": "bioclim_01",
						"label": {
							"en": "environmental variable bioclim_01"
						}
					}
				},
				"species": {
					"type": "Parameter",
					"observedProperty": {
						"id": "species",
						"label": {
							"en": "species"
						}
					}
				},
				"lat": {
					"type": "Parameter",
					"observedProperty": {
						"id": "lat",
						"label": {
							"en": "Latitude"
						}
					}
				},
				"lon": {
					"type": "Parameter",
					"observedProperty": {
						"id": "lon",
						"label": {
							"en": "Longitude"
						}
					}
				}
			},
			"ranges": {},
			"bccvl:metadata": {
				"url": "https://swift.rc.nectar.org.au/v1/project_id/test_result/7dd73278-0954-11ec-b4f1-0242ac130003/occurrence_environmental_koala_bioclim.csv",
				"size": 5960,
				"type": "POINT",
				"uuid": "7ca914d4-0959-11ec-bb9b-0242ac110002",
				"count": 63,
				"genre": "DataGenreSpeciesOccurEnv",
				"order": 5,
				"title": "Occurrence points with environmental data",
				"mimetype": "text/csv",
				"layername": "Occurrence points with environmental data",
				"extent_wgs84": {
					"top": -27.081490000000002,
					"left": 152.75786000000002,
					"right": 153.45,
					"bottom": -27.983333000000002
				},
				"scientificName": [
					"koala"
				]
			},
			"rangeAlternates": {
				"dmgr:csv": {
					"url": "http://localhost:9000/resultmanager/result/7ca914d4-0959-11ec-bb9b-0242ac110002/download/occurrence_environmental_koala_bioclim.csv",
					"tempurl": "http://localhost:9000/resultmanager/result/7ca914d4-0959-11ec-bb9b-0242ac110002/tempurl/occurrence_environmental_koala_bioclim.csv"
				}
			}
		},
		{
			"type": "File",
			"bccvl:metadata": {
				"url": "https://swift.rc.nectar.org.au/v1/project_id/test_result/7dd73278-0954-11ec-b4f1-0242ac130003/proj_current_koala_bioclim.png",
				"size": 20860,
				"type": "FILE",
				"uuid": "7caf44a8-0959-11ec-bb9b-0242ac110002",
				"genre": "DataGenreSDMEval",
				"order": 3,
				"title": "Projection plot",
				"mimetype": "image/png"
			},
			"rangeAlternates": {
				"dmgr:file": {
					"url": "http://localhost:9000/resultmanager/result/7caf44a8-0959-11ec-bb9b-0242ac110002/download/proj_current_koala_bioclim.png",
					"tempurl": "http://localhost:9000/resultmanager/result/7caf44a8-0959-11ec-bb9b-0242ac110002/tempurl/proj_current_koala_bioclim.png"
				}
			}
		},
		{
			"type": "Coverage",
			"domain": {
				"type": "Domain",
				"domainType": "Grid",
				"axes": {
					"y": {
						"num": 92,
						"stop": -27.0775,
						"start": -27.9875
					},
					"x": {
						"num": 71,
						"stop": 153.455,
						"start": 152.755
					}
				},
				"referencing": [
					{
						"coordinates": [
							"x",
							"y"
						],
						"system": {
							"type": "GeographicCRS",
							"wkt": "GEOGCS[\"WGS 84\",DATUM[\"WGS_1984\",SPHEROID[\"WGS 84\",6378137,298.257223563,AUTHORITY[\"EPSG\",\"7030\"]],AUTHORITY[\"EPSG\",\"6326\"]],PRIMEM[\"Greenwich\",0],UNIT[\"degree\",0.0174532925199433],AUTHORITY[\"EPSG\",\"4326\"]]"
						}
					}
				]
			},
			"parameters": {
				"Projection to current climate": {
					"type": "Parameter",
					"observedProperty": {
						"id": "Projection to current climate",
						"label": {
							"en": "Projection to current climate"
						},
						"dmgr:nodata": -340000000000000000000000000000000000000,
						"dmgr:statistics": {
							"max": 0.85714286565781,
							"min": 0.0,
							"mean": 0.23836320542052,
							"stddev": 0.21093404148151
						}
					},
					"unit": {
						"symbol": {
							"value": ""
						}
					}
				}
			},
			"ranges": {},
			"bccvl:metadata": {
				"url": "https://swift.rc.nectar.org.au/v1/project_id/test_result/7dd73278-0954-11ec-b4f1-0242ac130003/proj_current_koala_bioclim.tif",
				"size": 6812,
				"type": "GEOTIFF",
				"uuid": "7cae4b48-0959-11ec-bb9b-0242ac110002",
				"genre": "DataGenreCP",
				"layer": "projection_probability",
				"order": 1,
				"title": "Projection to current climate",
				"auxfiles": [],
				"mimetype": "image/geotiff",
				"data_type": "Continuous",
				"resolution": null,
				"extent_wgs84": {
					"top": -27.0725,
					"left": 152.75,
					"right": 153.46,
					"bottom": -27.9925
				},
				"acknowledgement": null
			},
			"rangeAlternates": {
				"dmgr:tiff": {
					"Projection to current climate": {
						"type": "dmgr:TIFF2DArray",
						"datatype": "Float32",
						"axisNames": [
							"y",
							"x"
						],
						"shape": [
							92,
							71
						],
						"dmgr:datatype": "Float32",
						"url": "http://localhost:9000/resultmanager/result/7cae4b48-0959-11ec-bb9b-0242ac110002/download/proj_current_koala_bioclim.tif",
						"tempurl": "http://localhost:9000/resultmanager/result/7cae4b48-0959-11ec-bb9b-0242ac110002/tempurl/proj_current_koala_bioclim.tif"
					}
				}
			}
		},
		{
			"type": "File",
			"bccvl:metadata": {
				"url": "https://swift.rc.nectar.org.au/v1/project_id/test_result/7dd73278-0954-11ec-b4f1-0242ac130003/proj_current_koala_bioclim_unconstrained.png",
				"size": 17760,
				"type": "FILE",
				"uuid": "7ca71fda-0959-11ec-bb9b-0242ac110002",
				"genre": "DataGenreSDMEval",
				"order": 4,
				"title": "Projection plot - unconstrained",
				"mimetype": "image/png"
			},
			"rangeAlternates": {
				"dmgr:file": {
					"url": "http://localhost:9000/resultmanager/result/7ca71fda-0959-11ec-bb9b-0242ac110002/download/proj_current_koala_bioclim_unconstrained.png",
					"tempurl": "http://localhost:9000/resultmanager/result/7ca71fda-0959-11ec-bb9b-0242ac110002/tempurl/proj_current_koala_bioclim_unconstrained.png"
				}
			}
		},
		{
			"type": "Coverage",
			"domain": {
				"type": "Domain",
				"domainType": "Grid",
				"axes": {
					"y": {
						"num": 3455,
						"stop": -9.1975,
						"start": -43.7375
					},
					"x": {
						"num": 4072,
						"stop": 153.635,
						"start": 112.925
					}
				},
				"referencing": [
					{
						"coordinates": [
							"x",
							"y"
						],
						"system": {
							"type": "GeographicCRS",
							"wkt": "GEOGCS[\"WGS 84\",DATUM[\"WGS_1984\",SPHEROID[\"WGS 84\",6378137,298.257223563,AUTHORITY[\"EPSG\",\"7030\"]],AUTHORITY[\"EPSG\",\"6326\"]],PRIMEM[\"Greenwich\",0],UNIT[\"degree\",0.0174532925199433],AUTHORITY[\"EPSG\",\"4326\"]]"
						}
					}
				]
			},
			"parameters": {
				"Projection to current climate - unconstrained": {
					"type": "Parameter",
					"observedProperty": {
						"id": "Projection to current climate - unconstrained",
						"label": {
							"en": "Projection to current climate - unconstrained"
						},
						"dmgr:nodata": -340000000000000000000000000000000000000,
						"dmgr:statistics": {
							"max": 0.39682540297508,
							"min": 0.0,
							"mean": 0.00024471066993837,
							"stddev": 0.0050341915531615
						}
					},
					"unit": {
						"symbol": {
							"value": ""
						}
					}
				}
			},
			"ranges": {},
			"bccvl:metadata": {
				"url": "https://swift.rc.nectar.org.au/v1/project_id/test_result/7dd73278-0954-11ec-b4f1-0242ac130003/proj_current_koala_bioclim_unconstrained.tif",
				"size": 447548,
				"type": "GEOTIFF",
				"uuid": "7ca61342-0959-11ec-bb9b-0242ac110002",
				"genre": "DataGenreCP_ENVLOP",
				"layer": "projection_probability",
				"order": 2,
				"title": "Projection to current climate - unconstrained",
				"auxfiles": [],
				"mimetype": "image/geotiff",
				"data_type": "Continuous",
				"resolution": null,
				"extent_wgs84": {
					"top": -9.1925,
					"left": 112.92,
					"right": 153.64,
					"bottom": -43.7425
				},
				"acknowledgement": null
			},
			"rangeAlternates": {
				"dmgr:tiff": {
					"Projection to current climate - unconstrained": {
						"type": "dmgr:TIFF2DArray",
						"datatype": "Float32",
						"axisNames": [
							"y",
							"x"
						],
						"shape": [
							3455,
							4072
						],
						"dmgr:datatype": "Float32",
						"url": "http://localhost:9000/resultmanager/result/7ca61342-0959-11ec-bb9b-0242ac110002/download/proj_current_koala_bioclim_unconstrained.tif",
						"tempurl": "http://localhost:9000/resultmanager/result/7ca61342-0959-11ec-bb9b-0242ac110002/tempurl/proj_current_koala_bioclim_unconstrained.tif"
					}
				}
			}
		},
		{
			"type": "Coverage",
			"domain": {
				"type": "Domain",
				"domainType": "FeatureCollection",
				"axes": {},
				"referencing": [
					{
						"type": "Point",
						"columns": [
							"lon",
							"lat"
						],
						"system": {
							"type": "GeographicCRS",
							"wkt": "GEOGCS[\"WGS 84\",DATUM[\"WGS_1984\",SPHEROID[\"WGS 84\",6378137,298.257223563,AUTHORITY[\"EPSG\",\"7030\"]],AUTHORITY[\"EPSG\",\"6326\"]],PRIMEM[\"Greenwich\",0],UNIT[\"degree\",0.0174532925199433],AUTHORITY[\"EPSG\",\"4326\"]]"
						}
					}
				]
			},
			"parameters": {
				"lat": {
					"type": "Parameter",
					"observedProperty": {
						"id": "lat",
						"label": {
							"en": "Latitude"
						}
					}
				},
				"lon": {
					"type": "Parameter",
					"observedProperty": {
						"id": "lon",
						"label": {
							"en": "Longitude"
						}
					}
				}
			},
			"ranges": {},
			"bccvl:metadata": {
				"url": "https://swift.rc.nectar.org.au/v1/project_id/test_result/7dd73278-0954-11ec-b4f1-0242ac130003/pseudo_absences_koala_bioclim.csv",
				"size": 1083,
				"type": "POINT",
				"uuid": "7cacd0a6-0959-11ec-bb9b-0242ac110002",
				"count": 63,
				"genre": "DataGenreSpeciesAbsence",
				"order": 6,
				"title": "Absence records (map)",
				"mimetype": "text/csv",
				"layername": "Absence records (map)",
				"extent_wgs84": {
					"top": -27.0875,
					"left": 152.765,
					"right": 153.435,
					"bottom": -27.9775
				}
			},
			"rangeAlternates": {
				"dmgr:csv": {
					"url": "http://localhost:9000/resultmanager/result/7cacd0a6-0959-11ec-bb9b-0242ac110002/download/pseudo_absences_koala_bioclim.csv",
					"tempurl": "http://localhost:9000/resultmanager/result/7cacd0a6-0959-11ec-bb9b-0242ac110002/tempurl/pseudo_absences_koala_bioclim.csv"
				}
			}
		},
		{
			"type": "File",
			"bccvl:metadata": {
				"url": "https://swift.rc.nectar.org.au/v1/project_id/test_result/7dd73278-0954-11ec-b4f1-0242ac130003/response_curve_koala_bioclim_p0.png",
				"size": 9914,
				"type": "FILE",
				"uuid": "7cad1656-0959-11ec-bb9b-0242ac110002",
				"genre": "DataGenreSDMEval",
				"order": 8,
				"title": "Marginal Response Curve",
				"mimetype": "image/png"
			},
			"rangeAlternates": {
				"dmgr:file": {
					"url": "http://localhost:9000/resultmanager/result/7cad1656-0959-11ec-bb9b-0242ac110002/download/response_curve_koala_bioclim_p0.png",
					"tempurl": "http://localhost:9000/resultmanager/result/7cad1656-0959-11ec-bb9b-0242ac110002/tempurl/response_curve_koala_bioclim_p0.png"
				}
			}
		}
	]
}