{
    "type": "Coverage",
    "domain": {
        "type": "Domain",
        "domainType": "FeatureCollection",
        "axes": {},
        "referencing": [
            {
                "type": "Point",
                "columns": [
                    "lon",
                    "lat"
                ],
                "system": {
                    "type": "GeographicCRS",
                    "wkt": "GEOGCS[\"WGS 84\",DATUM[\"WGS_1984\",SPHEROID[\"WGS 84\",6378137,298.257223563,AUTHORITY[\"EPSG\",\"7030\"]],AUTHORITY[\"EPSG\",\"6326\"]],PRIMEM[\"Greenwich\",0],UNIT[\"degree\",0.0174532925199433],AUTHORITY[\"EPSG\",\"4326\"]]"
                }
            }
        ]
    },
    "parameters": {
        "Macadamia integrifolia (occurrences)": {
            "type": "Parameter",
            "observedProperty": {
                "id": "Macadamia integrifolia (occurrences)",
                "label": {
                    "en": "Macadamia integrifolia (occurrences)"
                }
            }
        }
    },
    "ranges": {},
    "bccvl:metadata": {
        "url": "https://object-store.rc.nectar.org.au/v1/project_id/test_result/b5c4f5c8-5baf-11ec-a45a-0242ac130005/ala_occurrences.csv",
        "uuid": "b5c4f5c8-5baf-11ec-a45a-0242ac130005",
        "count": 47,
        "genre": "DataGenreSpeciesOccurrence",
        "title": "Macadamia integrifolia occurrences from ALA - 13-Dec-2021-00:58:11.261922",
        "domain": null,
        "license": null,
        "auxfiles": [
            {
                "url": "https://object-store.rc.nectar.org.au/v1/project_id/test_result/b5c4f5c8-5baf-11ec-a45a-0242ac130005/ala_citation.csv",
                "path": "ala_citation.csv",
                "type": "citation"
            }
        ],
        "mimetype": "application/csv",
        "categories": [
            "biological",
            "occurrence"
        ],
        "source_url": "https://biocache-ws.ala.org.au/ws/occurrences/offline/download?q=lsid:https://id.biodiversity.org.au/node/apni/2890419&qa=none&fields=taxon_name,common_name,species,subspecies,rank,latitude,longitude,coordinate_uncertainty,individual_count,year,month,occurrence_date,basis_of_record,spatiallyValid,outlierLayerCount,recordedBy&fq=-assertions:(ZERO_COORDINATE+OR+BASIS_OF_RECORD_INVALID+OR+COORDINATE_INVALID+OR+COORDINATES_CENTRE_OF_COUNTRY+OR+COORDINATE_OUT_OF_RANGE+OR+COORDINATE_REPROJECTION_FAILED+OR+COORDINATES_CENTRE_OF_STATEPROVINCE)+AND+(spatiallyValid:true)+AND+(basisOfRecord:HUMAN_OBSERVATION+OR+basisOfRecord:OBSERVATION)+AND+year:[1970+TO+2021]+AND+(outlierLayerCount:0)+AND+(month:1+OR+month:2+OR+month:3+OR+month:4)&dwcHeaders=true&email=<your_email_address>&reasonTypeId=13&sourceTypeId=2002&emailNotify=false&mintDoi=False",
        "description": "Observed occurrences for Macadamia integrifolia, imported from ALA on 13-12-2021",
        "attributions": [
            {
                "type": "citation",
                "value": "Atlas of Living Australia occurrence download accessed via EcoCommons at https://biocache.ala.org.au/occurrences/search?&q=lsid%3Ahttps%3A%2F%2Fid.biodiversity.org.au%2Fnode%2Fapni%2F2890419&fq=-assertions%3A%28ZERO_COORDINATE+OR+BASIS_OF_RECORD_INVALID+OR+COORDINATE_INVALID+OR+COORDINATES_CENTRE_OF_COUNTRY+OR+COORDINATE_OUT_OF_RANGE+OR+COORDINATE_REPROJECTION_FAILED+OR+COORDINATES_CENTRE_OF_STATEPROVINCE%29+AND+%28spatiallyValid%3Atrue%29+AND+%28basisOfRecord%3AHUMAN_OBSERVATION+OR+basisOfRecord%3AOBSERVATION%29+AND+year%3A%5B1970+TO+2021%5D+AND+%28outlierLayerCount%3A0%29+AND+%28month%3A1+OR+month%3A2+OR+month%3A3+OR+month%3A4%29&disableAllQualityFilters=true accessed on 13 December 2021."
            },
            {
                "type": "contributor",
                "value": "Records provided by Department of Planning, Industry and Environment representing the State of New South Wales, accessed through ALA website. (). For more information: https://collections.ala.org.au/public/show/dp34"
            },
            {
                "type": "contributor",
                "value": "BioNet Species Sightings occurrence data held by the NSW Office of Environment and Heritage (OEH).   The BioNet repository holds data from a number of sources and custodians. (Accessed through ALA Data Portal,). (Creative Commons Attribution (International) (CC-BY 4.0 (Int))). For more information: https://collections.ala.org.au/public/show/dr368"
            },
            {
                "type": "contributor",
                "value": "iNaturalist.org: iNaturalist Research-grade Observations. doi:10.15468/ab3s5x\r\nAccessed via http://www.gbif.org/dataset/50c9509d-22c7-4a22-a47d-8c48425ef4a7 on 2017-03-16 (CC-BY-NC-Int). For more information: https://collections.ala.org.au/public/show/dr1411"
            },
            {
                "type": "contributor",
                "value": "Records provided by Citizen Science - ALA Website, accessed through ALA website. (). For more information: https://collections.ala.org.au/public/show/dp31"
            },
            {
                "type": "contributor",
                "value": "Records provided by Questagame, accessed through ALA website. (). For more information: https://collections.ala.org.au/public/show/dp52"
            },
            {
                "type": "contributor",
                "value": "Individual sighting: Atlas of Living Australia (2021) Individual sighting dataset\nTest sighting: Atlas of Living Australia (2021) Test sighting dataset\n (CC-BY). For more information: https://collections.ala.org.au/public/show/dr364"
            },
            {
                "type": "contributor",
                "value": "Records provided by Earth Guardians Weekly Feed, accessed through ALA website. (Creative Commons Attribution-Noncommercial (International) (CC-BY-NC 4.0 (Int))). For more information: https://collections.ala.org.au/public/show/dr1902"
            }
        ],
        "extent_wgs84": {
            "top": -26.691848,
            "left": 150.57977500000004,
            "right": 153.546257,
            "bottom": -34.47902203310981
        },
        "scientificName": [
            "Macadamia integrifolia"
        ]
    },
    "rangeAlternates": {
        "dmgr:csv": {
            "url": "http://127.0.0.1:8000/api/data/be5a04b2-5baf-11ec-8b1c-0242ac130006/download/ala_occurrences.csv",
            "tempurl": "http://127.0.0.1:8000/api/data/be5a04b2-5baf-11ec-8b1c-0242ac130006/tempurl/ala_occurrences.csv"
        }
    }
}