{
  "function": "aggregate_categories",
  "spatial": {
    "uuid": "a71d8e6c-f555-5b06-9df7-17700f0926ac",
    "layers": [
      "Land_Use_Secondary_Categories"
    ],
    "source_type": "dataset"
  },
  "template": {
    "source_type": "dataset",
    "uuid": "9ccad5ab-d8fd-538f-b052-a7d1453c8ec8",
    "layers": [
      "template_au"
    ]
  },
  "binarize": true,
  "selected": [
    13,
    33,
    32
  ],
  "categories": [
    11,
    12,
    13,
    21,
    22,
    31,
    32,
    33,
    34,
    35,
    36,
    41,
    42,
    43,
    44,
    45,
    46,
    51,
    52,
    53,
    54,
    55,
    56,
    57,
    58,
    59,
    61,
    62,
    63,
    64,
    65,
    66
  ],
  "user": {
    "uuid": "d83dc2bb-8df1-4c12-a80c-9e45e8e45a48"
  }
}