{
    "function": "arrival_likelihood",
    "pathway_likelihood_layers": [
        { 
            "uuid": "6221c91c-fa77-11eb-bc01-0242ac150005",
            "layers": ["bioclim_01","bioclim_02"],
            "source_type": "dataset"
        } 
    ],
    "template": { 
        "uuid": "6221c91c-fa77-11eb-bc01-0242ac150005",
        "layers": ["bioclim_02"],
        "source_type": "dataset"
    },
    "normalize": false,
    "binarize": false,
    "use_fun": "union",
    "na.rm": false
}
