{
  "user": { "uuid": "owner-uuid" },
  "species": "5ae93332-405e-11ed-a7d1-0a580a64132b",
  "absence": null,
  "predictors": [
    {
      "uuid": "36edf5d6-1561-52bb-93c3-354e81e917a8",
      "layers": [
        "bioclim_02"
      ]
    }
  ],
  "scale_down":  false,
  "pa_ratio":  1.0,
  "pa_strategy":  "random",
  "pa_sre_quant":  null,
  "pa_disk_min":  0.0,
  "pa_disk_max":  null,
  "random_seed": 1234,
  "unconstraint_map": true,
  "generate_convexhull": false,
  "modelling_region": {
      "method": "convex hull",
      "radius": 1.0,
      "geojson": "{\"type\":\"FeatureCollection\",\"features\":[{\"type\":\"Feature\",\"id\":\"geo_constraints\",\"geometry\":{\"type\":\"Polygon\",\"coordinates\":[[[17081975.86222783,-3198635.9028256694],[17078265.249641217,-3244771.9105849112],[17068988.55119545,-3246872.6247306815],[17035681.202952653,-3244587.770087115],[17007762.83125915,-3207012.7548658494],[17005907.580625594,-3165179.3854764462],[17004927.18987017,-3133656.5419858764],[17026316.11683119,-3133886.9695945433],[17079718.525593523,-3180852.0312850703],[17081975.86222783,-3198635.9028256694]]]},\"properties\":{}}],\"crs\":{\"type\":\"name\",\"properties\":{\"name\":\"urn:ogc:def:crs:EPSG::3857\"}},\"properties\":{\"constraint_method\":{\"title\":\"Use Convex Hull\",\"id\":\"use_convex_hull\"},\"region_offset\":\"\"}}"
  }
}
