{
    "user": {
        "uuid": "76c77e9b-6744-4c5b-8722-7c2cee464040"
    },
    "function": "combine_layers",
    "spatial_dataset": [
	    {
            "uuid": "6b48ac9e-a94c-11ed-a863-da580a640236",
            "layers": ["occurrence_pr"],
            "source_type": "dataset"
	    },
        {
            "uuid": "7b48ac9e-a94c-11ed-a863-da580a640237",
            "layers": ["suitability"],
            "source_type": "dataset"
        }
    ],
    "template": {
        "layers": [
          "template_au"
        ],
        "name": "template_au",
        "uuid": "9ccad5ab-d8fd-538f-b052-a7d1453c8ec8",
        "label": "Australia 1km",
        "source_type": "dataset"
    },
    "normalize": false,
    "binarize": false,
    "use_fun": "sum",
    "weights": null,
    "na.rm": true
}